{
	"emit_time": 0,
	"emit_count": 3,
	"direction": 180,
	"direction_random": 0,
	"speed": 10,
	"speed_random": -10,
	"end_speed": 0,
	"life": 5.71,
	"life_random": -10,
	"rotation": 0,
	"rotation_random": 0,
	"end_rotation": 0,
	"end_rotation_random": 0,
	"rotation_offset": 0,
	"pos_offset": {
		"_construct": false,
		"ignore_listeners": false,
		"w": 0,
		"z": 0,
		"y": 1,
		"x": 1
	},
	"pos_random": {
		"_construct": false,
		"ignore_listeners": false,
		"w": 0,
		"z": 0,
		"y": 512,
		"x": 0
	},
	"gravity": {
		"_construct": false,
		"ignore_listeners": false,
		"w": 0,
		"z": 0,
		"y": 0,
		"x": 0
	},
	"start_size": {
		"_construct": false,
		"ignore_listeners": false,
		"w": 0,
		"z": 0,
		"y": 8,
		"x": 8
	},
	"start_size_random": {
		"_construct": false,
		"ignore_listeners": false,
		"w": 0,
		"z": 0,
		"y": 0,
		"x": 0
	},
	"end_size": {
		"_construct": false,
		"ignore_listeners": false,
		"w": 0,
		"z": 0,
		"y": 8,
		"x": 8
	},
	"end_size_random": {
		"_construct": false,
		"ignore_listeners": false,
		"w": 0,
		"z": 0,
		"y": 0,
		"x": 0
	},
	"start_color": {
		"v": 0.5,
		"s": 0,
		"h": 220,
		"refreshing": false,
		"is_hsv": true,
		"is_hsl": false,
		"a": 1,
		"b": 0.5,
		"g": 0.5,
		"r": 0.5
	},
	"end_color": {
		"v": 0.5,
		"s": 0,
		"h": 0,
		"refreshing": false,
		"is_hsv": true,
		"is_hsl": false,
		"a": 1,
		"b": 0.5,
		"g": 0.5,
		"r": 0.5
	},
	"blend_src": 770,
	"blend_dst": 771
}
